{
    "KPlugin": {
        "Description": "Settings that don't fit elsewhere",
        "Description[ar]": "بقيّة الإعدادات التي لا مكان لها",
        "Description[az]": "Başqa heç bir yerə aid olmayan ayarlar-",
        "Description[bg]": "Настройки, които не пасват на друго място",
        "Description[ca@valencia]": "Opcions que no van bé enlloc",
        "Description[ca]": "Opcions que no van bé enlloc",
        "Description[cs]": "Nastavení nehodící se jinam",
        "Description[de]": "Verschiedene Einstellungen",
        "Description[en_GB]": "Settings that don't fit elsewhere",
        "Description[eo]": "Agordoj kiuj apartenas nenie alie",
        "Description[es]": "Preferencias que no encajan en ningún otro sitio",
        "Description[eu]": "Beste inon sartzen ez diren ezarpenak",
        "Description[fi]": "Asetukset, jotka eivät sovi muuallekaan",
        "Description[fr]": "Paramètres ne rentrant dans aucune autre catégorie",
        "Description[gl]": "Opcións que non cadran noutro sitio",
        "Description[hu]": "A máshová nem besorolható beállítások",
        "Description[ia]": "Preferentias que non es in altere placias",
        "Description[id]": "Pengaturan yang tidak cocok di tempat lain",
        "Description[it]": "Impostazioni che non rientrano in altre categorie",
        "Description[ka]": "პარამეტრები, რომლებიც სხვაგან არ ეტევა",
        "Description[ko]": "어떤 곳에도 어울리지 않는 설정",
        "Description[lv]": "Iestatījumi, kas nav citur",
        "Description[nl]": "Instellingen die nergens echt passen",
        "Description[pl]": "Ustawienia, które nie pasują gdzie indziej",
        "Description[pt]": "Configurações que não se encaixam em lado nenhum",
        "Description[pt_BR]": "Outras configurações",
        "Description[ru]": "Параметры, не вошедшие в другие разделы",
        "Description[sl]": "Nastavitve, ki ne spadajo drugam",
        "Description[sv]": "Inställningar som inte passar någon annanstans",
        "Description[ta]": "வேறெந்த தலைப்பிற்கும் பொருந்தாத அமைப்புகள்",
        "Description[tr]": "Diğer bölümlere uymayan ayarlar",
        "Description[uk]": "Інші параметри",
        "Description[x-test]": "xxSettings that don't fit elsewherexx",
        "Description[zh_CN]": "其它设置",
        "Description[zh_TW]": "不屬於任何其他地方的設定",
        "Icon": "preferences-other",
        "Name": "Misc",
        "Name[af]": "Allerlei",
        "Name[ar]": "متنوّع",
        "Name[az]": "Müxtəlif",
        "Name[be]": "Рознае",
        "Name[bg]": "Разни",
        "Name[br]": "A bep seurt",
        "Name[bs]": "Razno",
        "Name[ca@valencia]": "Miscel·lània",
        "Name[ca]": "Miscel·lània",
        "Name[cs]": "Různé",
        "Name[cy]": "Amrywiol",
        "Name[da]": "Diverse",
        "Name[de]": "Diverses",
        "Name[el]": "Διάφορα",
        "Name[en_GB]": "Misc",
        "Name[eo]": "Diversaj",
        "Name[es]": "Varios",
        "Name[et]": "Muud",
        "Name[eu]": "Hainbat",
        "Name[fi]": "Muut",
        "Name[fr]": "Divers",
        "Name[fy]": "Ferskate",
        "Name[ga]": "Éagsúil",
        "Name[gl]": "Diversos",
        "Name[he]": "כללי",
        "Name[hu]": "Egyéb",
        "Name[ia]": "Misc",
        "Name[id]": "Aneka",
        "Name[is]": "Ýmislegt",
        "Name[it]": "Varie",
        "Name[ja]": "オプション",
        "Name[ka]": "სხვანი",
        "Name[kk]": "Түрлі",
        "Name[km]": "ផ្សេងៗ",
        "Name[ko]": "기타",
        "Name[lt]": "Įvairūs",
        "Name[lv]": "Dažādi",
        "Name[mai]": "विविध",
        "Name[mk]": "Разно",
        "Name[mr]": "किरकोळ",
        "Name[ms]": "Pelbagai",
        "Name[nb]": "Div",
        "Name[nds]": "Anner Saken",
        "Name[ne]": "विविध",
        "Name[nl]": "Diversen",
        "Name[nn]": "Ymse",
        "Name[pa]": "ਫੁਟਕਲ",
        "Name[pl]": "Różne",
        "Name[pt]": "Diversos",
        "Name[pt_BR]": "Diversos",
        "Name[ro]": "Diverse",
        "Name[ru]": "Прочее",
        "Name[se]": "Feará mii",
        "Name[sk]": "Rôzne",
        "Name[sl]": "Razno",
        "Name[sr@ijekavian]": "Разно",
        "Name[sr@ijekavianlatin]": "Razno",
        "Name[sr@latin]": "Razno",
        "Name[sr]": "Разно",
        "Name[sv]": "Diverse",
        "Name[ta]": "மற்றவை",
        "Name[tg]": "Ғайра",
        "Name[th]": "เบ็ดเตล็ด",
        "Name[tr]": "Çeşitli",
        "Name[ug]": "ئارىلاش",
        "Name[uk]": "Різне",
        "Name[uz@cyrillic]": "Ҳар хил",
        "Name[uz]": "Har xil",
        "Name[wa]": "Totès sôres",
        "Name[x-test]": "xxMiscxx",
        "Name[zh_CN]": "基本",
        "Name[zh_TW]": "其他",
        "ServiceTypes": [
            "KCModule"
        ]
    },
    "X-DocPath": "kmail2/index.html#configure-misc",
    "X-KDE-Weight": 600
}
